<svg width="115" height="39" viewBox="0 0 115 39" fill="none" xmlns="http://www.w3.org/2000/svg">
<g clip-path="url(#clip0)">
<path d="M0 22.4822L1.54425 24.2937L17.6835 8.01422L16.2085 6.48047L0 22.4822Z" fill="#BBC932"/>
<path d="M16.884 4.45996L27.4574 7.80121L41.6409 22.2048L40.9686 23.7748L33.6915 24.2941L15.7676 6.02592L16.884 4.45996Z" fill="#BBC932"/>
<path d="M35.142 22.8207L16.884 4.45996L15.7676 6.02592L33.3615 24.2941L35.142 22.8207Z" fill="#BBC932"/>
<path d="M31.1584 30.7749L30.6083 24.7647L16.7956 10.7314L7.17969 21.1738L9.37179 36.7006C9.37179 36.7006 9.47366 38.496 11.4539 38.657L15.9522 32.6267L11.6535 32.7756C11.185 32.7958 10.7897 32.4093 10.7734 31.9182C10.7571 31.4271 11.1198 31.0164 11.5924 31.0003L17.2805 30.8031C17.5861 30.795 17.8591 30.9561 18.018 31.2056C18.3562 31.4633 18.4254 31.9383 18.1687 32.2765L13.373 38.7013C17.0156 38.7335 24.4109 38.6892 26.8842 38.6731C27.4057 38.6691 27.7073 38.6691 27.7073 38.6691C27.7073 38.6691 28.0088 38.5564 28.4773 38.3833C29.6386 37.9525 31.8307 37.1394 32.9308 36.7408C33.2894 36.608 33.4687 36.3504 33.4687 36.3504C33.4687 36.3504 33.7091 36.2256 33.815 35.7827C34.0595 34.7643 34.4425 32.7998 34.8173 30.7709H31.1584V30.7749ZM18.511 28.3394C16.6367 28.3394 15.1169 26.6849 15.1169 24.6399C15.1169 22.5989 16.6367 20.9444 18.511 20.9444C20.3853 20.9444 21.9051 22.5989 21.9051 24.6399C21.9051 26.6849 20.3853 28.3394 18.511 28.3394Z" fill="#BBC932"/>
<path d="M44.8887 5.65137H51.1268V7.5273H47.1949V9.83799H50.8701V11.6938H47.1949V15.7596H44.8887V5.65137Z" fill="#BBC932"/>
<path d="M54.8723 6.38829C54.8723 7.01629 54.3996 7.52754 53.6296 7.52754C52.9002 7.52754 52.4316 7.01629 52.4316 6.38829C52.4316 5.7442 52.9165 5.24905 53.6622 5.24905C54.4037 5.24502 54.856 5.74017 54.8723 6.38829ZM52.4887 15.7599V8.42525H54.7949V15.7559H52.4887V15.7599Z" fill="#BBC932"/>
<path d="M56.649 10.7647C56.649 9.85085 56.6205 9.08599 56.5879 8.42579H58.5926L58.6985 9.44427H58.7433C59.0448 8.96522 59.7905 8.26074 61.0332 8.26074C62.553 8.26074 63.6898 9.26714 63.6898 11.4249V15.7604H61.3836V11.6946C61.3836 10.7526 61.0495 10.1085 60.2142 10.1085C59.5786 10.1085 59.1956 10.5433 59.0285 10.9659C58.9674 11.1149 58.9511 11.3242 58.9511 11.5376V15.7645H56.6449V10.7647H56.649Z" fill="#BBC932"/>
<path d="M72.731 5.1123V13.5701C72.731 14.3953 72.7636 15.2649 72.7921 15.76H70.7426L70.6489 14.6973H70.6041C70.1478 15.5064 69.2391 15.9251 68.2816 15.9251C66.5214 15.9251 65.1075 14.4396 65.1075 12.1611C65.0912 9.68941 66.6559 8.24825 68.4324 8.24825C69.3573 8.24825 70.0581 8.57835 70.3922 9.07349H70.4208V5.1123H72.731ZM70.4248 11.5291C70.4248 11.4083 70.4248 11.2433 70.3963 11.1064C70.2619 10.5066 69.7566 9.99938 69.0436 9.99938C67.9801 9.99938 67.4504 10.9293 67.4504 12.0806C67.4504 13.3245 68.0738 14.1055 69.0313 14.1055C69.6996 14.1055 70.2456 13.6587 70.3841 13.0105C70.4126 12.8455 70.4289 12.6684 70.4289 12.4872V11.5291H70.4248Z" fill="#BBC932"/>
<path d="M44.873 17.3257C45.4802 17.217 46.6944 17.1123 47.8638 17.1123C49.2736 17.1123 50.1414 17.2492 50.8993 17.6799C51.6123 18.0583 52.1135 18.7467 52.1135 19.6766C52.1135 20.5582 51.5838 21.3835 50.4267 21.8182V21.8504C51.596 22.1524 52.4598 23.034 52.4598 24.3262C52.4598 25.2561 52.0361 25.9767 51.4005 26.4879C50.6548 27.0716 49.4121 27.4017 47.3789 27.4017C46.238 27.4017 45.3905 27.3293 44.873 27.2528V17.3257ZM47.1629 21.1943H47.9249C49.1554 21.1943 49.791 20.6991 49.791 19.9504C49.791 19.1855 49.2002 18.7789 48.1531 18.7789C47.6356 18.7789 47.3504 18.8111 47.1629 18.8393V21.1943ZM47.1629 25.6747C47.3911 25.707 47.6641 25.707 48.0593 25.707C49.1065 25.707 50.0314 25.3044 50.0314 24.2376C50.0314 23.2312 49.1065 22.8287 47.9534 22.8287H47.1629V25.6747Z" fill="#BBC932"/>
<path d="M60.1853 25.5257C60.1853 26.214 60.2179 26.8903 60.3076 27.2929H58.2295L58.0951 26.5602H58.0503C57.5654 27.148 56.8034 27.462 55.9233 27.462C54.4198 27.462 53.5234 26.3831 53.5234 25.2117C53.5234 23.3076 55.2551 22.4058 57.8791 22.4058V22.3173C57.8791 21.9107 57.6673 21.3592 56.5264 21.3592C55.7685 21.3592 54.9618 21.6128 54.4769 21.9147L54.0531 20.4454C54.5706 20.1595 55.5852 19.7852 56.9379 19.7852C59.4112 19.7852 60.1853 21.2223 60.1853 22.9654V25.5257ZM57.9525 23.8309C56.7383 23.8309 55.797 24.1167 55.797 24.9862C55.797 25.5699 56.1923 25.8558 56.7057 25.8558C57.2679 25.8558 57.7528 25.4774 57.9036 25.0144C57.9321 24.8936 57.9484 24.7608 57.9484 24.6239V23.8309H57.9525Z" fill="#BBC932"/>
<path d="M62.0142 22.3018C62.0142 21.388 61.9857 20.6231 61.9531 19.9629H63.9578L64.0637 20.9814H64.1086C64.4141 20.5023 65.1557 19.7979 66.4025 19.7979C67.9182 19.7979 69.0591 20.8043 69.0591 22.962V27.2935H66.7529V23.2317C66.7529 22.2857 66.4188 21.6416 65.5835 21.6416C64.9479 21.6416 64.5649 22.0763 64.3978 22.495C64.3367 22.644 64.3204 22.8533 64.3204 23.0626V27.2895H62.0142V22.3018Z" fill="#BBC932"/>
<path d="M77.933 26.2309C77.933 27.6398 77.6437 28.7952 76.7962 29.5278C75.9894 30.2162 74.8811 30.4256 73.7892 30.4256C72.8031 30.4256 71.7845 30.2323 71.1163 29.87L71.5726 28.131C72.0453 28.4007 72.8479 28.6865 73.728 28.6865C74.82 28.6865 75.6553 28.1149 75.6553 26.7502V26.2832H75.6227C75.1827 26.883 74.4696 27.2333 73.618 27.2333C71.7845 27.2333 70.4766 25.7639 70.4766 23.6625C70.4766 21.2955 72.0086 19.7939 73.8462 19.7939C74.8648 19.7939 75.5005 20.2287 75.8794 20.8446H75.9079L75.9853 19.959H77.99C77.9574 20.438 77.9289 21.054 77.9289 22.1489V26.2309H77.933ZM75.6268 22.95C75.6268 22.8131 75.6146 22.6642 75.582 22.5273C75.4149 21.9275 74.9749 21.525 74.3352 21.525C73.4876 21.525 72.8194 22.2737 72.8194 23.6062C72.8194 24.7012 73.3654 25.5546 74.3229 25.5546C74.93 25.5546 75.4027 25.1681 75.5534 24.6408C75.6146 24.4596 75.6309 24.2221 75.6309 24.0289V22.95H75.6268Z" fill="#BBC932"/>
<path d="M82.0892 23.0541H82.1177C82.2848 22.7401 82.4682 22.4382 82.6515 22.1685L84.155 19.9625H86.9339L84.2773 22.9334L87.3128 27.2971H84.4728L82.6678 24.286L82.0933 25.0066V27.3011H79.7871V16.6494H82.0933V23.0541H82.0892Z" fill="#BBC932"/>
<path d="M95.1251 23.5453C95.1251 26.2304 93.1979 27.4582 91.2095 27.4582C89.0378 27.4582 87.3672 26.0492 87.3672 23.6782C87.3672 21.291 88.9481 19.7773 91.3439 19.7773C93.6053 19.7814 95.1251 21.3272 95.1251 23.5453ZM89.7549 23.6218C89.7549 24.8818 90.2846 25.8278 91.2706 25.8278C92.1833 25.8278 92.7415 24.9462 92.7415 23.6097C92.7415 22.5309 92.3178 21.4198 91.2706 21.4198C90.1786 21.4158 89.7549 22.5429 89.7549 23.6218Z" fill="#BBC932"/>
<path d="M98.8531 23.0541H98.8857C99.0527 22.7401 99.2361 22.4382 99.4154 22.1685L100.919 19.9625H103.698L101.041 22.9334L104.077 27.2971H101.237L99.4317 24.286L98.8531 25.0066V27.3011H96.5469V16.6494H98.8531V23.0541Z" fill="#BBC932"/>
<path d="M44.873 28.8597C45.6187 28.739 46.7107 28.6504 47.9534 28.6504C49.4691 28.6504 50.5326 28.8758 51.2619 29.4434C51.8853 29.9225 52.2195 30.6431 52.2195 31.573C52.2195 32.8491 51.2905 33.7307 50.4104 34.0487V34.093C51.1234 34.3788 51.5186 35.039 51.7794 35.9649C52.0972 37.1203 52.3987 38.4406 52.5984 38.8311H50.2311C50.0803 38.5332 49.8195 37.7201 49.5343 36.4802C49.245 35.2041 48.805 34.874 47.8475 34.8579H47.1629V38.8311H44.873V28.8597ZM47.1629 33.2114H48.0756C49.2287 33.2114 49.9133 32.6438 49.9133 31.7582C49.9133 30.8443 49.2736 30.3613 48.2142 30.3613C47.6519 30.3613 47.3341 30.3935 47.167 30.4378V33.2114H47.1629Z" fill="#BBC932"/>
<path d="M61.1269 35.0833C61.1269 37.7683 59.1997 38.9962 57.2113 38.9962C55.0395 38.9962 53.373 37.5872 53.373 35.2201C53.373 32.833 54.9499 31.3193 57.3498 31.3193C59.6071 31.3234 61.1269 32.8652 61.1269 35.0833ZM55.7526 35.1598C55.7526 36.4198 56.2823 37.3658 57.2683 37.3658C58.181 37.3658 58.7392 36.4842 58.7392 35.1477C58.7392 34.0688 58.3155 32.9578 57.2683 32.9578C56.1804 32.9578 55.7526 34.0809 55.7526 35.1598Z" fill="#BBC932"/>
<path d="M69.9277 35.0833C69.9277 37.7683 68.0004 38.9962 66.0121 38.9962C63.8403 38.9962 62.1738 37.5872 62.1738 35.2201C62.1738 32.833 63.7507 31.3193 66.1506 31.3193C68.4079 31.3234 69.9277 32.8652 69.9277 35.0833ZM64.5534 35.1598C64.5534 36.4198 65.0831 37.3658 66.0732 37.3658C66.9818 37.3658 67.5441 36.4842 67.5441 35.1477C67.5441 34.0688 67.1203 32.9578 66.0732 32.9578C64.9771 32.9578 64.5534 34.0809 64.5534 35.1598Z" fill="#BBC932"/>
<path d="M71.3502 33.8392C71.3502 32.9254 71.3217 32.1606 71.2891 31.5004H73.2448L73.3345 32.4907H73.3793C73.6971 32.0116 74.3653 31.3232 75.6244 31.3232C76.5941 31.3232 77.3398 31.8184 77.6576 32.5792H77.6861C77.9713 32.1928 78.2932 31.8909 78.6558 31.6815C79.0674 31.4561 79.5237 31.3232 80.0656 31.3232C81.4917 31.3232 82.5715 32.3135 82.5715 34.5155V38.835H80.3264V34.8456C80.3264 33.7789 79.976 33.167 79.2344 33.167C78.6884 33.167 78.3217 33.5252 78.1587 33.96C78.1139 34.1251 78.0813 34.3505 78.0813 34.5437V38.835H75.8362V34.7088C75.8362 33.795 75.5021 33.167 74.7606 33.167C74.1657 33.167 73.8193 33.6178 73.6849 33.9761C73.6075 34.1532 73.5912 34.3666 73.5912 34.5638V38.835H71.3461V33.8392H71.3502Z" fill="#BBC932"/>
<path d="M84.2285 37.6186C84.2285 36.7933 84.7908 36.2217 85.5935 36.2217C86.384 36.2217 86.9299 36.7772 86.9462 37.6186C86.9462 38.4116 86.4003 38.9993 85.565 38.9993C84.7908 38.9993 84.2285 38.4116 84.2285 37.6186Z" fill="#BBC932"/>
<path d="M93.9097 38.6374C93.4982 38.8306 92.724 38.9836 91.8439 38.9836C89.448 38.9836 87.916 37.5304 87.916 35.2358C87.916 33.0941 89.4032 31.335 92.1658 31.335C92.7729 31.335 93.4411 31.4396 93.926 31.6208L93.5634 33.3156C93.2904 33.1988 92.8829 33.0941 92.2758 33.0941C91.0616 33.0941 90.2711 33.9476 90.2874 35.1472C90.2874 36.4837 91.2001 37.2003 92.3206 37.2003C92.8666 37.2003 93.2944 37.1117 93.6408 36.9628L93.9097 38.6374Z" fill="#BBC932"/>
<path d="M102.348 35.0833C102.348 37.7683 100.42 38.9962 98.432 38.9962C96.2602 38.9962 94.5938 37.5872 94.5938 35.2201C94.5938 32.833 96.1706 31.3193 98.5705 31.3193C100.828 31.3234 102.348 32.8652 102.348 35.0833ZM96.9733 35.1598C96.9733 36.4198 97.503 37.3658 98.489 37.3658C99.4017 37.3658 99.9599 36.4842 99.9599 35.1477C99.9599 34.0688 99.5362 32.9578 98.489 32.9578C97.397 32.9578 96.9733 34.0809 96.9733 35.1598Z" fill="#BBC932"/>
<path d="M103.766 33.8392C103.766 32.9254 103.738 32.1606 103.705 31.5004H105.665L105.759 32.4907H105.803C106.121 32.0116 106.79 31.3232 108.049 31.3232C109.022 31.3232 109.764 31.8184 110.082 32.5792H110.114C110.404 32.1928 110.721 31.8909 111.084 31.6815C111.496 31.4561 111.952 31.3232 112.498 31.3232C113.924 31.3232 115.004 32.3135 115.004 34.5155V38.835H112.759V34.8456C112.759 33.7789 112.408 33.167 111.663 33.167C111.117 33.167 110.75 33.5252 110.587 33.96C110.542 34.1251 110.514 34.3505 110.514 34.5437V38.835H108.269V34.7088C108.269 33.795 107.934 33.167 107.189 33.167C106.598 33.167 106.248 33.6178 106.113 33.9761C106.036 34.1532 106.019 34.3666 106.019 34.5638V38.835H103.774V33.8392H103.766Z" fill="#BBC932"/>
<path d="M81.3567 17.6356C80.3788 17.4625 79.3601 17.0358 78.4352 16.432C78.3333 16.3635 78.2315 16.2991 78.1337 16.2267C78.0481 16.1663 77.9666 16.1019 77.8811 16.0415C77.7629 15.9489 77.6448 15.8523 77.5307 15.7557C77.441 15.6792 77.3514 15.5987 77.2658 15.5182C77.1517 15.4095 77.0376 15.2968 76.9276 15.184C76.8624 15.1156 76.8013 15.0512 76.7402 14.9787C76.6343 14.858 76.5324 14.7372 76.4346 14.6124C76.3939 14.5601 76.349 14.5077 76.3083 14.4554C76.182 14.2863 76.0679 14.1092 75.9579 13.924C75.9171 13.8556 75.8764 13.7872 75.8397 13.7187C75.7582 13.5738 75.6849 13.4289 75.6156 13.2799C75.5871 13.2195 75.5545 13.1632 75.5301 13.0988C75.4445 12.8975 75.3671 12.6962 75.306 12.4869C75.2856 12.4225 75.2693 12.354 75.253 12.2896C75.2082 12.1246 75.1715 11.9555 75.1389 11.7824C75.1267 11.718 75.1145 11.6496 75.1022 11.5811C75.0696 11.3557 75.0533 11.1303 75.0493 10.8968C75.0493 10.8404 75.0533 10.78 75.0533 10.7196C75.0533 10.5304 75.0656 10.3412 75.09 10.148C75.0982 10.0756 75.1063 10.0031 75.1145 9.93063C75.1511 9.69312 75.1959 9.45561 75.2611 9.2181C75.2611 9.2181 75.2611 9.2181 75.2652 9.2181C75.3508 8.91215 75.4567 8.60218 75.5953 8.28819C75.7175 8.00237 75.8519 7.74473 75.9946 7.50319C75.5178 7.19322 74.8048 6.529 74.9433 6.47667C75.3711 6.31162 76.3287 6.48874 76.6913 6.56523C77.5429 5.62727 78.5167 5.28509 79.3112 5.5226C79.4661 5.51857 79.6168 5.50247 79.7839 5.45014C79.9795 5.38573 80.4236 5.41391 80.6069 5.50247C80.2728 5.51455 80.1465 5.55078 79.8572 5.70375C79.9061 5.69973 79.955 5.6957 79.9998 5.68362C80.1547 5.64739 80.2688 5.67155 80.3951 5.65947C80.1832 5.70375 80.0691 5.71985 79.9183 5.8688C79.9265 5.87283 79.9346 5.8849 79.9428 5.89296C80.0936 5.84062 80.2484 5.77621 80.3828 5.74803C80.2647 5.81647 80.065 5.88088 80.065 6.00165C80.4643 6.38005 80.8799 6.93559 81.2833 7.5676C83.2432 6.0258 86.2421 6.47264 86.2421 6.47264C86.2421 6.47264 86.2217 6.95571 86.0913 7.64812C86.7921 7.87355 87.2566 8.10703 87.2566 8.10703C87.2566 8.10703 86.9999 9.10136 86.401 10.2084C86.0668 10.929 85.582 11.7301 84.926 12.3742C86.0954 12.9539 87.4726 13.3806 88.2141 13.3685C88.4016 15.1075 86.2828 17.2693 83.4551 17.6719C83.4551 17.6719 82.2082 17.7363 81.3567 17.6356Z" fill="#BBC932"/>
<path d="M69.3687 1.80313C69.1405 1.70652 68.7127 1.69042 68.346 1.69444C68.4112 1.67834 68.4479 1.65418 68.4153 1.5777C68.3297 1.39252 68.0526 1.32409 67.8 1.4368C67.7593 1.4529 67.7267 1.48108 67.6941 1.50524C66.8262 0.293532 65.6609 -0.16136 64.7645 0.0680987C64.63 0.0680987 64.4956 0.0560219 64.3489 0.0197915C64.1777 -0.0204645 63.7907 -0.000336469 63.6277 0.0640731C63.917 0.0721243 64.0311 0.0962779 64.2878 0.204969C64.247 0.204969 64.2063 0.196918 64.1614 0.192892C64.027 0.164713 63.9292 0.180815 63.8151 0.17679C64.0025 0.208995 64.1003 0.217046 64.2348 0.325737C64.2266 0.329763 64.2185 0.337814 64.2144 0.341839C64.08 0.305609 63.9496 0.261327 63.8273 0.241199C63.9333 0.293532 64.1085 0.337814 64.1085 0.422351C63.6236 0.812834 63.1102 1.46096 62.6498 2.16544C62.3523 2.23387 62.0386 2.33049 61.6963 2.48748C60.8081 2.89407 60.2214 3.5744 59.8424 4.21044C59.545 4.58079 59.3413 4.99141 59.2109 5.39397C58.3837 5.68381 57.5444 5.87704 57.0391 5.87301C56.8599 7.45105 59.7609 9.4719 63.0817 8.94454C63.864 8.81975 64.6708 8.54601 65.4164 8.15955C65.4164 8.15955 65.4164 8.15955 65.4164 8.16358C65.4246 8.15955 65.4327 8.15553 65.4449 8.14748C65.4653 8.13942 65.4816 8.12735 65.4979 8.11527C65.6487 8.03476 65.7994 7.9462 65.9461 7.85763C65.9868 7.83348 66.0276 7.8053 66.0643 7.78115C66.2272 7.67648 66.3821 7.56779 66.5328 7.45105C66.5328 7.45105 66.5369 7.45105 66.5369 7.44702C66.6836 7.3343 66.8221 7.21354 66.9607 7.09277C66.9973 7.06056 67.034 7.02433 67.0707 6.99213C67.1888 6.87941 67.2988 6.7667 67.4048 6.64995C67.4211 6.62983 67.4415 6.61372 67.4578 6.59359C67.5718 6.46075 67.6819 6.31985 67.7796 6.17896C67.8082 6.1387 67.8367 6.09442 67.8652 6.05416C67.9426 5.94145 68.0119 5.82068 68.0771 5.70394C68.0975 5.66771 68.1219 5.63148 68.1382 5.59122C68.2115 5.44227 68.2767 5.29333 68.3297 5.13633C68.346 5.08802 68.3623 5.03569 68.3745 4.98738C68.4112 4.87064 68.4397 4.74987 68.4642 4.6291C68.4764 4.57677 68.4886 4.52041 68.4968 4.46808C68.5212 4.30705 68.5334 4.14603 68.5375 3.98098C68.5375 3.92865 68.5334 3.87229 68.5294 3.81996C68.5253 3.69516 68.5131 3.57037 68.4968 3.44155C68.4886 3.37714 68.4805 3.31676 68.4682 3.25235C68.4356 3.08327 68.3949 2.91822 68.3338 2.74512C68.3053 2.66864 68.2686 2.58812 68.236 2.50761C68.6638 2.35866 69.495 1.86352 69.3687 1.80313Z" fill="#BBC932"/>
</g>
<defs>
<clipPath id="clip0">
<rect width="115" height="39" fill="white"/>
</clipPath>
</defs>
</svg>
