<svg width="23" height="23" viewBox="0 0 23 23" fill="none" xmlns="http://www.w3.org/2000/svg">
<path d="M22.7347 11.4189C22.5596 11.593 22.3304 11.68 22.1016 11.68C21.8707 11.68 21.6399 11.5916 21.4642 11.4149L20.7539 10.6998V14.1957C20.7539 14.6917 20.3517 15.0939 19.8554 15.0939H18.5977C18.1015 15.0939 17.6993 14.6917 17.6993 14.1957C17.6993 13.6994 18.1015 13.2972 18.5977 13.2972H18.9571V8.8912L12.124 2.01342C11.7887 1.72616 11.295 1.72511 10.9585 2.01096L4.04166 8.91401C4.04184 8.92261 4.04289 8.93121 4.04289 8.93998V13.2972H4.4472C4.94347 13.2972 5.34567 13.6994 5.34567 14.1957C5.34567 14.6917 4.94347 15.0939 4.4472 15.0939H3.1446C2.64833 15.0939 2.24613 14.6917 2.24613 14.1957V10.706L1.53314 11.4175C1.18183 11.768 0.613091 11.7676 0.262478 11.4163C-0.0879601 11.0652 -0.0874336 10.4963 0.263706 10.1457L9.71044 0.718054C9.72255 0.705946 9.73483 0.694365 9.74764 0.682959C10.7737 -0.230569 12.3185 -0.227235 13.3406 0.690504C13.3533 0.70191 13.3657 0.713667 13.3777 0.725775L22.7389 10.1485C23.0887 10.5005 23.0868 11.0692 22.7347 11.4189ZM19.8554 16.8908C19.3593 16.8908 18.9571 17.293 18.9571 17.7892V21.2031H18.5977C18.1015 21.2031 17.6993 21.6053 17.6993 22.1016C17.6993 22.5978 18.1015 23 18.5977 23H19.8554C20.3517 23 20.7539 22.5978 20.7539 22.1016V17.7892C20.7539 17.293 20.3517 16.8908 19.8554 16.8908ZM4.4472 21.2031H4.04289V17.7892C4.04289 17.293 3.64069 16.8908 3.1446 16.8908C2.64833 16.8908 2.24613 17.293 2.24613 17.7892V22.1016C2.24613 22.5978 2.64833 23 3.1446 23H4.4472C4.94347 23 5.34567 22.5978 5.34567 22.1016C5.34567 21.6053 4.94347 21.2031 4.4472 21.2031ZM11.5 21.2031C11.0037 21.2031 10.6015 21.6053 10.6015 22.1016C10.6015 22.5978 11.0037 23 11.5 23C11.9963 23 12.3985 22.5978 12.3985 22.1016C12.3985 21.6053 11.9963 21.2031 11.5 21.2031ZM15.0039 21.2031C14.5078 21.2031 14.1054 21.6053 14.1054 22.1016C14.1054 22.5978 14.5078 23 15.0039 23C15.5001 23 15.9023 22.5978 15.9023 22.1016C15.9023 21.6053 15.5001 21.2031 15.0039 21.2031ZM7.99616 21.2031C7.49989 21.2031 7.09769 21.6053 7.09769 22.1016C7.09769 22.5978 7.49989 23 7.99616 23C8.49224 23 8.89445 22.5978 8.89445 22.1016C8.89445 21.6053 8.49224 21.2031 7.99616 21.2031ZM11.5 13.2972C11.0037 13.2972 10.6015 13.6994 10.6015 14.1957C10.6015 14.6917 11.0037 15.0939 11.5 15.0939C11.9963 15.0939 12.3985 14.6917 12.3985 14.1957C12.3985 13.6994 11.9963 13.2972 11.5 13.2972ZM15.0039 13.2972C14.5078 13.2972 14.1054 13.6994 14.1054 14.1957C14.1054 14.6917 14.5078 15.0939 15.0039 15.0939C15.5001 15.0939 15.9023 14.6917 15.9023 14.1957C15.9023 13.6994 15.5001 13.2972 15.0039 13.2972ZM7.99616 13.2972C7.49989 13.2972 7.09769 13.6994 7.09769 14.1957C7.09769 14.6917 7.49989 15.0939 7.99616 15.0939C8.49224 15.0939 8.89445 14.6917 8.89445 14.1957C8.89445 13.6994 8.49224 13.2972 7.99616 13.2972Z" fill="#66737D"/>
</svg>
