<svg width="16" height="16" viewBox="0 0 16 16" fill="none" xmlns="http://www.w3.org/2000/svg">
<path d="M4.36364 0V0.709822V1.69137L0 3.82084V15.6161H4.36364H11.6364H16V2.83929H14.5455V1.41964H11.6364V0H4.36364ZM5.81818 1.41964H10.1818V14.1964H5.81818V1.41964ZM7.27273 2.83929V4.25893H8.72727V2.83929H7.27273ZM11.6364 2.83929H13.0909V4.25893H14.5455V14.1964H11.6364V12.7768H13.0909V11.3572H11.6364V9.93751H13.0909V8.51787H11.6364V7.09822H13.0909V5.67858H11.6364V2.83929ZM4.36364 3.27738V5.67858H2.90909V7.09822H4.36364V8.51787H2.90909V9.93751H4.36364V11.3572H2.90909V12.7768H4.36364V14.1964H1.45455V4.69703L4.36364 3.27738ZM7.27273 5.67858V7.09822H8.72727V5.67858H7.27273ZM7.27273 8.51787V9.93751H8.72727V8.51787H7.27273ZM7.27273 11.3572V12.7768H8.72727V11.3572H7.27273Z" fill="#FFA14A"/>
</svg>
