<svg width="24" height="24" viewBox="0 0 24 24" fill="none" xmlns="http://www.w3.org/2000/svg">
<path d="M7.5 3.5C4.47122 3.5 2 5.97122 2 9C2 11.0481 3.54382 12.9764 5.42578 14.9541C7.30774 16.9318 9.62419 18.9347 11.4697 20.7803C11.6104 20.9209 11.8011 20.9999 12 20.9999C12.1989 20.9999 12.3896 20.9209 12.5303 20.7803C14.3758 18.9347 16.6923 16.9318 18.5742 14.9541C20.4562 12.9764 22 11.0481 22 9C22 5.97122 19.5288 3.5 16.5 3.5C14.7618 3.5 13.2484 4.43324 12 6.01855C10.7516 4.43324 9.23822 3.5 7.5 3.5Z" fill="#8A959E"/>
</svg>
