<svg width="23" height="23" viewBox="0 0 23 23" fill="none" xmlns="http://www.w3.org/2000/svg">
<path d="M3 0C2.72461 0 2.5 0.234819 2.5 0.522727V14.1136C2.5 14.4036 2.72461 14.6364 3 14.6364H5.5C5.77734 14.6364 6 14.4036 6 14.1136V0.522727C6 0.234819 5.77734 0 5.5 0H3ZM7.5 0C7.22461 0 7 0.234819 7 0.522727V14.1136C7 14.4036 7.22461 14.6364 7.5 14.6364H10C10.2773 14.6364 10.5 14.4036 10.5 14.1136V0.522727C10.5 0.234819 10.2773 0 10 0H7.5ZM3.75 2.09091H4.75C5.02734 2.09091 5.25 2.32573 5.25 2.61364C5.25 2.90154 5.02734 3.13636 4.75 3.13636H3.75C3.47266 3.13636 3.25 2.90154 3.25 2.61364C3.25 2.32573 3.47266 2.09091 3.75 2.09091ZM8.25 2.09091H9.25C9.52734 2.09091 9.75 2.32573 9.75 2.61364C9.75 2.90154 9.52734 3.13636 9.25 3.13636H8.25C7.97266 3.13636 7.75 2.90154 7.75 2.61364C7.75 2.32573 7.97266 2.09091 8.25 2.09091ZM17.7969 2.84233L15.375 3.44673C15.2461 3.4794 15.1328 3.557 15.0625 3.67543C15.0332 3.72443 15.0117 3.78365 15 3.83878V3.65909C15 3.37118 14.7773 3.13636 14.5 3.13636H12C11.7246 3.13636 11.5 3.37118 11.5 3.65909V14.1136C11.5 14.4036 11.7246 14.6364 12 14.6364H14.5C14.7773 14.6364 15 14.4036 15 14.1136V4.06747L17.4062 14.2443C17.4609 14.4853 17.6641 14.6527 17.8906 14.6527C17.9277 14.6527 17.9609 14.6445 18 14.6364L20.4375 14.032C20.5664 13.9993 20.6797 13.9217 20.75 13.8033C20.8203 13.6848 20.8438 13.546 20.8125 13.4112L18.4062 3.23437C18.3418 2.95259 18.0645 2.77495 17.7969 2.84233ZM17.4844 5.11293C17.6758 5.14764 17.8438 5.29466 17.8906 5.50497C17.9531 5.78675 17.7832 6.0767 17.5156 6.14205L17.0312 6.25639C16.9922 6.2666 16.959 6.27273 16.9219 6.27273C16.6953 6.27273 16.4766 6.10529 16.4219 5.86435C16.3594 5.58256 16.5293 5.30895 16.7969 5.24361L17.2812 5.12926C17.3477 5.11293 17.4199 5.10067 17.4844 5.11293ZM13 5.22727H13.5C13.7773 5.22727 14 5.46209 14 5.75C14 6.03791 13.7773 6.27273 13.5 6.27273H13C12.7227 6.27273 12.5 6.03791 12.5 5.75C12.5 5.46209 12.7227 5.22727 13 5.22727ZM18.7656 11.2223C19.0332 11.159 19.3105 11.3326 19.375 11.6143C19.4375 11.8941 19.2695 12.1697 19 12.2351L18.5156 12.3658C18.4766 12.376 18.4277 12.3821 18.3906 12.3821C18.1641 12.3821 17.9609 12.2147 17.9062 11.9737C17.8438 11.694 18.0117 11.402 18.2812 11.3366L18.7656 11.2223ZM3.75 11.5H4.75C5.02734 11.5 5.25 11.7348 5.25 12.0227C5.25 12.3106 5.02734 12.5455 4.75 12.5455H3.75C3.47266 12.5455 3.25 12.3106 3.25 12.0227C3.25 11.7348 3.47266 11.5 3.75 11.5ZM8.25 11.5H9.25C9.52734 11.5 9.75 11.7348 9.75 12.0227C9.75 12.3106 9.52734 12.5455 9.25 12.5455H8.25C7.97266 12.5455 7.75 12.3106 7.75 12.0227C7.75 11.7348 7.97266 11.5 8.25 11.5ZM13 11.5H13.5C13.7773 11.5 14 11.7328 14 12.0227C14 12.3127 13.7773 12.5455 13.5 12.5455H13C12.7227 12.5455 12.5 12.3127 12.5 12.0227C12.5 11.7328 12.7227 11.5 13 11.5ZM0.5 15.1591C0.224609 15.1591 0 15.3919 0 15.6818V17.25C0 17.5399 0.224609 17.7727 0.5 17.7727H22.5C22.7773 17.7727 23 17.5399 23 17.25V15.6818C23 15.3919 22.7773 15.1591 22.5 15.1591H0.5ZM2 18.8182V21.6932C2 22.414 2.56055 23 3.25 23C3.93945 23 4.5 22.414 4.5 21.6932V18.8182H2ZM18.5 18.8182V21.6932C18.5 22.414 19.0605 23 19.75 23C20.4395 23 21 22.414 21 21.6932V18.8182H18.5Z" fill="#66737D"/>
</svg>
