<svg width="18" height="18" viewBox="0 0 18 18" fill="none" xmlns="http://www.w3.org/2000/svg">
<path fill-rule="evenodd" clip-rule="evenodd" d="M17.6765 15.5955C17.1209 17.2839 14.9441 18.1259 13.3889 17.9855C11.2648 17.7935 8.95363 16.6669 7.19922 15.4261C4.6204 13.6021 2.20477 10.7806 0.797161 7.78662C-0.197647 5.671 -0.420846 3.06986 1.05877 1.14145C1.60597 0.428643 2.19757 0.0479492 3.08678 0.00354882C4.32039 -0.0564517 4.49319 0.649276 4.9168 1.74848C5.2324 2.57049 5.6536 3.409 5.8888 4.261C6.32921 5.85102 4.78959 5.91747 4.59519 7.21708C4.47399 8.03669 5.4676 9.13582 5.91641 9.72023C6.79601 10.865 7.85322 11.8524 9.04603 12.6036C9.72883 13.0345 10.8316 13.8108 11.614 13.3824C12.8189 12.7224 12.7049 10.6908 14.3897 11.3784C15.2621 11.7336 16.1069 12.2463 16.9397 12.6951C18.2273 13.3875 18.1673 14.1051 17.6765 15.5955C18.0437 14.4819 17.3093 16.7091 17.6765 15.5955Z" fill="#BBC932"/>
</svg>
