<svg width="20" height="20" viewBox="0 0 20 20" fill="none" xmlns="http://www.w3.org/2000/svg">
<path d="M8.18763 0C9.29638 0 10.3554 0.21322 11.3646 0.639659C12.3738 1.08031 13.2409 1.66311 13.9659 2.38806C14.705 3.11301 15.2878 3.9801 15.7143 4.98934C16.1549 6.01279 16.3753 7.07889 16.3753 8.18763C16.3753 9.14001 16.2189 10.0498 15.9062 10.9168C15.5935 11.7839 15.1528 12.5729 14.5842 13.2836L19.7441 18.4435C19.9147 18.6283 20 18.8486 20 19.1045C20 19.3603 19.9147 19.5736 19.7441 19.7441C19.5736 19.9147 19.3603 20 19.1045 20C18.8486 20 18.6283 19.9147 18.4435 19.7441L13.2836 14.5842C12.5729 15.1528 11.7839 15.5935 10.9168 15.9062C10.0498 16.2189 9.14001 16.3753 8.18763 16.3753C7.07889 16.3753 6.01279 16.1549 4.98934 15.7143C3.9801 15.2878 3.11301 14.705 2.38806 13.9659C1.66311 13.2409 1.08031 12.3738 0.639659 11.3646C0.21322 10.3554 0 9.29638 0 8.18763C0 7.07889 0.21322 6.0199 0.639659 5.01066C1.08031 3.98721 1.66311 3.11301 2.38806 2.38806C3.11301 1.66311 3.9801 1.08031 4.98934 0.639659C6.01279 0.21322 7.07889 0 8.18763 0ZM8.18763 1.81237C7.32054 1.81237 6.49609 1.98294 5.71429 2.32409C4.91827 2.65103 4.23596 3.09879 3.66738 3.66738C3.09879 4.23596 2.65103 4.91827 2.32409 5.71429C1.98294 6.49609 1.81237 7.32054 1.81237 8.18763C1.81237 9.04051 1.98294 9.86496 2.32409 10.661C2.65103 11.4428 3.09879 12.118 3.66738 12.6866C4.23596 13.2552 4.91827 13.71 5.71429 14.0512C6.49609 14.3781 7.32054 14.5416 8.18763 14.5416C9.04051 14.5416 9.86496 14.3781 10.661 14.0512C11.4428 13.71 12.118 13.2552 12.6866 12.6866C13.2552 12.118 13.71 11.4428 14.0512 10.661C14.3781 9.86496 14.5416 9.04051 14.5416 8.18763C14.5416 7.32054 14.3781 6.49609 14.0512 5.71429C13.71 4.91827 13.2552 4.23596 12.6866 3.66738C12.118 3.09879 11.4428 2.65103 10.661 2.32409C9.86496 1.98294 9.04051 1.81237 8.18763 1.81237Z" fill="white"/>
</svg>
