<svg width="24" height="17" viewBox="0 0 24 17" fill="none" xmlns="http://www.w3.org/2000/svg">
<path d="M16.2791 11.195L15.1725 9.50068C16.3339 10.8715 18.4827 10.9396 19.7373 9.67231C20.8828 8.51515 20.8243 6.6979 19.6061 5.6095C18.3885 4.52162 16.4752 4.57679 15.3295 5.73416C14.4493 6.62332 14.2897 7.88758 14.7852 8.90768L12.1085 4.80915L16.0807 3.7202C17.3143 3.38203 17.8974 2.04056 17.2706 0.973573C16.8155 0.198859 15.8709 -0.170463 14.9737 0.0755237L8.95991 1.7241C7.40069 2.15158 6.70243 3.87349 7.55858 5.18445L9.37625 7.96753L6.18848 9.84658C10.0236 9.9303 12.7946 11.0396 16.2791 11.195Z" fill="#66737D"/>
<path d="M0.859455 13.0823C9.57741 10.728 12.8699 15.4809 22.5278 13.086C22.8884 12.9965 23.1044 12.6463 23.0103 12.3038C22.9162 11.9613 22.5475 11.7561 22.187 11.8455C12.9082 14.1465 9.61115 9.38602 0.490443 11.8491C0.132003 11.9459 -0.0760082 12.3004 0.0258828 12.641C0.127819 12.9816 0.501149 13.1791 0.859455 13.0823Z" fill="#66737D"/>
<path d="M22.187 14.8372C12.8911 17.1425 9.62924 12.3728 0.490443 14.8408C0.132003 14.9376 -0.0760082 15.2922 0.0258828 15.6327C0.127774 15.9733 0.501104 16.1709 0.859455 16.0741C9.57741 13.7198 12.8699 18.4727 22.5278 16.0777C22.8884 15.9883 23.1044 15.6381 23.0103 15.2956C22.9162 14.953 22.5475 14.7478 22.187 14.8372Z" fill="#66737D"/>
</svg>
